Read solute1.out — read_solute • kwb.hydrus1d
…
    References

    https://www.pc-progress.com/Downloads/Pgm_Hydrus1D/HYDRUS1D-4.17.pdf#page=273

    Examples

path_solute <- system.file("extdata/model/test/solute1.out", package = "kwb.hydrus1d")
solute <- read_solute(path = path_solute)
solute
#> # A tibble: 2,272 × 19
#>     time cv_top cv_bot sum_cv_top sum_cv_bot cv_ch0 cv_ch1 c_top c_root c_bot
#>  * <dbl>  <dbl>  <dbl>      <dbl>      <dbl>  <dbl>  <dbl> <dbl>  <dbl> <dbl>
#>  1 0.111      0      0          0          0      0      0     0      0     0
#>  2 0.148      0      0          0          0      0      0     0      0     0
#>  3 0.164      0      0          0          0      0      0     0      0     0
#>  4 0.171      0      0          0          0      0      0     0      0     0
#>  5 0.180      0      0          0          0      0      0     0      0     0
#>  6 0.184      0      0          0          0      0      0     0      0     0
#>  7 0.189      0      0          0          0      0      0     0      0     0
#>  8 0.196      0      0          0          0      0      0     0      0     0
#>  9 0.204      0      0          0          0      0      0     0      0     0
#> 10 0.216      0      0          0          0      0      0     0      0     0
#> # ℹ 2,262 more rows
#> # ℹ 9 more variables: cv_root <dbl>, sum_cv_root <dbl>, sum_cv_n_eql <dbl>,
#> #   t_level <dbl>, c_gwl <dbl>, c_run_off <dbl>, sum_c_run_off <dbl>,
#> #   cv_i <dbl>, sum_cv_i <dbl>
…
