Workflow • kwb.hydrus1d
…
Read Results

a_level <- kwb.hydrus1d::read_alevel(paths$a_level)
#> Rows: 1279 Columns: 10
#> ── Column specification ────────────────────────────────────────────────────────
#> 
#> dbl (10): time, sum_r_top, sum_r_root, sum_v_top, sum_v_root, sum_v_bot, h_t...
#> 
#> ℹ Use `spec()` to retrieve the full column specification for this data.
#> ℹ Specify the column types or set `show_col_types = FALSE` to quiet this message.
a_level
#> # A tibble: 1,279 × 10
#>     time sum_r_top sum_r_root sum_v_top sum_v_root sum_v_bot     h_top h_root
#>  * <dbl>     <dbl>      <dbl>     <dbl>      <dbl>     <dbl>     <dbl>  <dbl>
#>  1     1   2.5 e-1          0    0.0548          0  -0.00125 -100000        0
#>  2     2  -2   e-1          0   -0.395           0  -0.00249     -65.2      0
#>  3     3  -2   e-2          0   -0.215           0  -0.00374   -4602.       0
#>  4     4  -1.4 e-1          0   -0.335           0  -0.00499     -80.7      0
#>  5     5  -1.3 e-1          0   -0.325           0  -0.00623     -97.7      0
#>  6     6   3.96e-9          0   -0.231           0  -0.00748 -100000        0
#>  7     7   2.2 e-1          0   -0.206           0  -0.00873 -100000        0
#>  8     8   2.7 e-1          0   -0.192           0  -0.00997 -100000        0
#>  9     9   4.5 e-1          0   -0.180           0  -0.0112  -100000        0
#> 10    10   6.3 e-1          0   -0.170           0  -0.0125  -100000        0
#> # … with 1,269 more rows, and 2 more variables: h_bot <dbl>, a_level <dbl>

t_level <- kwb.hydrus1d::read_tlevel(paths$t_level)
#> Rows: 18411 Columns: 22
#> ── Column specification ────────────────────────────────────────────────────────
#> 
#> dbl (22): time, r_top, r_root, v_top, v_root, v_bot, sum_r_top, sum_r_root, ...
#> 
#> ℹ Use `spec()` to retrieve the full column specification for this data.
#> ℹ Specify the column types or set `show_col_types = FALSE` to quiet this message.
t_level
#> # A tibble: 18,411 × 22
#>     time r_top r_root  v_top v_root    v_bot sum_r_top sum_r_root sum_v_top
#>  * <dbl> <dbl>  <dbl>  <dbl>  <dbl>    <dbl>     <dbl>      <dbl>     <dbl>
#>  1 0.111  0.25      0 0.25        0 -0.00125    0.0278          0    0.0278
#>  2 0.148  0.25      0 0.195       0 -0.00125    0.0370          0    0.0350
#>  3 0.154  0.25      0 0.0859      0 -0.00125    0.0384          0    0.0355
#>  4 0.160  0.25      0 0.0839      0 -0.00125    0.0401          0    0.0360
#>  5 0.170  0.25      0 0.0861      0 -0.00125    0.0424          0    0.0368
#>  6 0.181  0.25      0 0.0797      0 -0.00125    0.0453          0    0.0377
#>  7 0.196  0.25      0 0.0441      0 -0.00125    0.0491          0    0.0384
#>  8 0.216  0.25      0 0.0326      0 -0.00125    0.0541          0    0.0391
#>  9 0.242  0.25      0 0.0321      0 -0.00125    0.0606          0    0.0399
#> 10 0.253  0.25      0 0.0402      0 -0.00125    0.0634          0    0.0403
#> # … with 18,401 more rows, and 13 more variables: sum_v_root <dbl>,
#> #   sum_v_bot <dbl>, h_top <dbl>, h_root <dbl>, h_bot <dbl>, run_off <dbl>,
#> #   sum_run_off <dbl>, volume <dbl>, sum_infil <dbl>, sum_evap <dbl>,
#> #   t_level <dbl>, cum_w_trans <dbl>, snow_layer <dbl>

runinf <- kwb.hydrus1d::read_runinf(paths$runinf)
#> Rows: 18411 Columns: 11
#> ── Column specification ────────────────────────────────────────────────────────
#> 
#> dbl (10): t_level, time, dt, itr_w, itr_c, it_cum, kod_t, kod_b, peclet, cou...
#> lgl  (1): converg
#> 
#> ℹ Use `spec()` to retrieve the full column specification for this data.
#> ℹ Specify the column types or set `show_col_types = FALSE` to quiet this message.
runinf
#> # A tibble: 18,411 × 11
#>    t_level  time      dt itr_w itr_c it_cum kod_t kod_b converg peclet courant
#>  *   <dbl> <dbl>   <dbl> <dbl> <dbl>  <dbl> <dbl> <dbl> <lgl>    <dbl>   <dbl>
#>  1       1 0.111 0.111       6     1     26    -4    -5 TRUE       0.1   0.198
#>  2       2 0.148 0.0370      3     1     39    -4    -5 TRUE       0.1   0.066
#>  3       3 0.153 0.00535     2     1     61     4    -5 TRUE       0.1   0.005
#>  4       4 0.160 0.00695     2     1     63     4    -5 TRUE       0.1   0.006
#>  5       5 0.169 0.00904     2     1     65     4    -5 TRUE       0.1   0.008
#>  6       6 0.181 0.0118      2     1     67     4    -5 TRUE       0.1   0.01 
#>  7       7 0.197 0.0153      2     1     69     4    -5 TRUE       0.1   0.008
#>  8       8 0.216 0.0199      2     1     71     4    -5 TRUE       0.1   0.008
#>  9       9 0.242 0.0258      2     1     73     4    -5 TRUE       0.1   0.009
#> 10      10 0.253 0.0112      2     1     85     4    -5 TRUE       0.1   0.005
#> # … with 18,401 more rows
…
